 -------------------------------------------
              17/08/2017 16:31
********************************************
                PEDIDO BALCAO
********************************************
                    Itens
Produto                                  Qtd.


Balcao
SENHA: 324
